Drop Columns which has only missing values — drop_missing_cols • pharmtables
…
drop_missing_cols(df)

    Arguments

df
data frame

    Value

    list of data frames

    Examples

drop_missing_cols(pharmaverseadam::advs)
#> # A tibble: 65,032 x 98
#>    STUDYID  DOMAIN USUBJID VSSEQ VSTESTCD VSTEST VSPOS VSORRES VSORRESU VSSTRESC
#>    <fct>    <fct>  <fct>   <dbl> <fct>    <fct>  <fct> <fct>   <fct>    <fct>   
#>  1 CDISCPI~ <Miss~ 01-701~    NA <Missin~ <Miss~ <Mis~ <Missi~ <Missin~ <Missin~
#>  2 CDISCPI~ <Miss~ 01-701~    NA <Missin~ <Miss~ <Mis~ <Missi~ <Missin~ <Missin~
#>  3 CDISCPI~ <Miss~ 01-701~    NA <Missin~ <Miss~ <Mis~ <Missi~ <Missin~ <Missin~
#>  4 CDISCPI~ <Miss~ 01-701~    NA <Missin~ <Miss~ <Mis~ <Missi~ <Missin~ <Missin~
#>  5 CDISCPI~ <Miss~ 01-701~    NA <Missin~ <Miss~ <Mis~ <Missi~ <Missin~ <Missin~
#>  6 CDISCPI~ <Miss~ 01-701~    NA <Missin~ <Miss~ <Mis~ <Missi~ <Missin~ <Missin~
#>  7 CDISCPI~ <Miss~ 01-701~    NA <Missin~ <Miss~ <Mis~ <Missi~ <Missin~ <Missin~
#>  8 CDISCPI~ <Miss~ 01-701~    NA <Missin~ <Miss~ <Mis~ <Missi~ <Missin~ <Missin~
#>  9 CDISCPI~ <Miss~ 01-701~    NA <Missin~ <Miss~ <Mis~ <Missi~ <Missin~ <Missin~
#> 10 CDISCPI~ <Miss~ 01-701~    NA <Missin~ <Miss~ <Mis~ <Missi~ <Missin~ <Missin~
#> # i 65,022 more rows
#> # i 88 more variables: VSSTRESN <dbl>, VSSTRESU <fct>, VSSTAT <fct>,
#> #   VSLOC <fct>, VSBLFL <fct>, VISITNUM <dbl>, VISIT <fct>, VISITDY <dbl>,
#> #   VSDTC <fct>, VSDY <dbl>, VSTPT <fct>, VSTPTNUM <dbl>, VSELTM <fct>,
#> #   VSTPTREF <fct>, TRTSDT <date>, TRTEDT <date>, TRT01A <fct>, TRT01P <fct>,
#> #   ADT <date>, ADY <dbl>, PARAMCD <fct>, AVAL <dbl>, ATPTN <dbl>, ATPT <fct>,
#> #   AVISIT <fct>, AVISITN <dbl>, DTYPE <fct>, ONTRTFL <fct>, ANRLO <dbl>, ...
…
